
<gpx xmlns="http://www.topografix.com/GPX/1/1" xmlns:gpxx="http://www.garmin.com/xmlschemas/GpxExtensions/v3" xmlns:xsi="http://www.w3.org/2001/XMLSchema-instance" version="1.1" creator="Adze - http://kobotsw.com/apps/adze" xsi:schemaLocation="http://www.topografix.com/GPX/1/1 http://www.topografix.com/GPX/1/1/gpx.xsd http://www.garmin.com/xmlschemas/GpxExtensions/v3 http://www.garmin.com/xmlschemas/GpxExtensionsv3.xsd">
    <metadata>
        <name>Untitled Document</name>
        <time>2015-10-22T12:36:22.512Z</time>
    </metadata>
    <trk>
        <name>Shire</name>
        <extensions>
            <gpxx:TrackExtension>
                <gpxx:DisplayColor>DarkYellow</gpxx:DisplayColor>
            </gpxx:TrackExtension>
        </extensions>
        <trkseg>
            <trkpt lon="-71.914368" lat="44.589553">
                <ele>365.700000</ele>
                <time>2015-10-12T14:01:39Z</time>
            </trkpt>
            <trkpt lon="-71.914344" lat="44.589574">
                <ele>365.500000</ele>
                <time>2015-10-12T14:01:40Z</time>
            </trkpt>
            <trkpt lon="-71.914304" lat="44.589605">
                <ele>365.500000</ele>
                <time>2015-10-12T14:01:42Z</time>
            </trkpt>
            <trkpt lon="-71.914275" lat="44.589626">
                <ele>365.600000</ele>
                <time>2015-10-12T14:01:44Z</time>
            </trkpt>
            <trkpt lon="-71.914230" lat="44.589645">
                <ele>365.800000</ele>
                <time>2015-10-12T14:01:47Z</time>
            </trkpt>
            <trkpt lon="-71.914184" lat="44.589659">
                <ele>366.100000</ele>
                <time>2015-10-12T14:01:50Z</time>
            </trkpt>
            <trkpt lon="-71.914137" lat="44.589674">
                <ele>366.400000</ele>
                <time>2015-10-12T14:01:52Z</time>
            </trkpt>
            <trkpt lon="-71.914074" lat="44.589694">
                <ele>366.900000</ele>
                <time>2015-10-12T14:01:54Z</time>
            </trkpt>
            <trkpt lon="-71.914022" lat="44.589722">
                <ele>367.300000</ele>
                <time>2015-10-12T14:01:56Z</time>
            </trkpt>
            <trkpt lon="-71.913997" lat="44.589764">
                <ele>367.200000</ele>
                <time>2015-10-12T14:01:58Z</time>
            </trkpt>
            <trkpt lon="-71.913967" lat="44.589795">
                <ele>367.200000</ele>
                <time>2015-10-12T14:02:00Z</time>
            </trkpt>
            <trkpt lon="-71.913920" lat="44.589806">
                <ele>367.400000</ele>
                <time>2015-10-12T14:02:02Z</time>
            </trkpt>
            <trkpt lon="-71.913868" lat="44.589793">
                <ele>367.900000</ele>
                <time>2015-10-12T14:02:04Z</time>
            </trkpt>
            <trkpt lon="-71.913825" lat="44.589764">
                <ele>368.600000</ele>
                <time>2015-10-12T14:02:06Z</time>
            </trkpt>
            <trkpt lon="-71.913786" lat="44.589741">
                <ele>369.100000</ele>
                <time>2015-10-12T14:02:08Z</time>
            </trkpt>
            <trkpt lon="-71.913737" lat="44.589729">
                <ele>369.600000</ele>
                <time>2015-10-12T14:02:10Z</time>
            </trkpt>
            <trkpt lon="-71.913688" lat="44.589728">
                <ele>369.800000</ele>
                <time>2015-10-12T14:02:12Z</time>
            </trkpt>
            <trkpt lon="-71.913639" lat="44.589726">
                <ele>370.100000</ele>
                <time>2015-10-12T14:02:14Z</time>
            </trkpt>
            <trkpt lon="-71.913590" lat="44.589726">
                <ele>370.200000</ele>
                <time>2015-10-12T14:02:16Z</time>
            </trkpt>
            <trkpt lon="-71.913548" lat="44.589749">
                <ele>369.800000</ele>
                <time>2015-10-12T14:02:18Z</time>
            </trkpt>
            <trkpt lon="-71.913511" lat="44.589776">
                <ele>369.300000</ele>
                <time>2015-10-12T14:02:20Z</time>
            </trkpt>
            <trkpt lon="-71.913477" lat="44.589801">
                <ele>368.800000</ele>
                <time>2015-10-12T14:02:22Z</time>
            </trkpt>
            <trkpt lon="-71.913422" lat="44.589798">
                <ele>368.800000</ele>
                <time>2015-10-12T14:02:24Z</time>
            </trkpt>
            <trkpt lon="-71.913378" lat="44.589780">
                <ele>369.100000</ele>
                <time>2015-10-12T14:02:26Z</time>
            </trkpt>
            <trkpt lon="-71.913340" lat="44.589756">
                <ele>369.500000</ele>
                <time>2015-10-12T14:02:28Z</time>
            </trkpt>
            <trkpt lon="-71.913302" lat="44.589736">
                <ele>370.000000</ele>
                <time>2015-10-12T14:02:30Z</time>
            </trkpt>
            <trkpt lon="-71.913259" lat="44.589721">
                <ele>370.300000</ele>
                <time>2015-10-12T14:02:32Z</time>
            </trkpt>
            <trkpt lon="-71.913216" lat="44.589711">
                <ele>370.600000</ele>
                <time>2015-10-12T14:02:34Z</time>
            </trkpt>
            <trkpt lon="-71.913169" lat="44.589713">
                <ele>370.600000</ele>
                <time>2015-10-12T14:02:36Z</time>
            </trkpt>
            <trkpt lon="-71.913122" lat="44.589722">
                <ele>370.400000</ele>
                <time>2015-10-12T14:02:40Z</time>
            </trkpt>
            <trkpt lon="-71.913061" lat="44.589683">
                <ele>371.500000</ele>
                <time>2015-10-12T14:03:23Z</time>
            </trkpt>
            <trkpt lon="-71.913021" lat="44.589679">
                <ele>371.700000</ele>
                <time>2015-10-12T14:03:25Z</time>
            </trkpt>
            <trkpt lon="-71.912977" lat="44.589677">
                <ele>371.800000</ele>
                <time>2015-10-12T14:03:27Z</time>
            </trkpt>
            <trkpt lon="-71.912933" lat="44.589668">
                <ele>372.100000</ele>
                <time>2015-10-12T14:03:29Z</time>
            </trkpt>
            <trkpt lon="-71.912875" lat="44.589659">
                <ele>372.500000</ele>
                <time>2015-10-12T14:03:31Z</time>
            </trkpt>
            <trkpt lon="-71.912827" lat="44.589650">
                <ele>372.800000</ele>
                <time>2015-10-12T14:03:33Z</time>
            </trkpt>
            <trkpt lon="-71.912784" lat="44.589638">
                <ele>373.100000</ele>
                <time>2015-10-12T14:03:35Z</time>
            </trkpt>
            <trkpt lon="-71.912743" lat="44.589634">
                <ele>373.300000</ele>
                <time>2015-10-12T14:03:37Z</time>
            </trkpt>
            <trkpt lon="-71.912707" lat="44.589624">
                <ele>373.600000</ele>
                <time>2015-10-12T14:03:39Z</time>
            </trkpt>
            <trkpt lon="-71.912667" lat="44.589609">
                <ele>373.900000</ele>
                <time>2015-10-12T14:03:41Z</time>
            </trkpt>
            <trkpt lon="-71.912627" lat="44.589592">
                <ele>374.300000</ele>
                <time>2015-10-12T14:03:43Z</time>
            </trkpt>
            <trkpt lon="-71.912577" lat="44.589581">
                <ele>374.600000</ele>
                <time>2015-10-12T14:03:45Z</time>
            </trkpt>
            <trkpt lon="-71.912524" lat="44.589567">
                <ele>375.100000</ele>
                <time>2015-10-12T14:03:47Z</time>
            </trkpt>
            <trkpt lon="-71.912473" lat="44.589553">
                <ele>375.600000</ele>
                <time>2015-10-12T14:03:49Z</time>
            </trkpt>
            <trkpt lon="-71.912428" lat="44.589540">
                <ele>376.200000</ele>
                <time>2015-10-12T14:03:51Z</time>
            </trkpt>
            <trkpt lon="-71.912386" lat="44.589522">
                <ele>376.900000</ele>
                <time>2015-10-12T14:03:53Z</time>
            </trkpt>
            <trkpt lon="-71.912348" lat="44.589542">
                <ele>376.800000</ele>
                <time>2015-10-12T14:03:55Z</time>
            </trkpt>
            <trkpt lon="-71.912318" lat="44.589566">
                <ele>376.600000</ele>
                <time>2015-10-12T14:03:57Z</time>
            </trkpt>
            <trkpt lon="-71.912278" lat="44.589586">
                <ele>376.600000</ele>
                <time>2015-10-12T14:03:59Z</time>
            </trkpt>
            <trkpt lon="-71.912226" lat="44.589602">
                <ele>376.700000</ele>
                <time>2015-10-12T14:04:01Z</time>
            </trkpt>
            <trkpt lon="-71.912170" lat="44.589616">
                <ele>376.900000</ele>
                <time>2015-10-12T14:04:03Z</time>
            </trkpt>
            <trkpt lon="-71.912120" lat="44.589630">
                <ele>376.900000</ele>
                <time>2015-10-12T14:04:05Z</time>
            </trkpt>
            <trkpt lon="-71.912056" lat="44.589633">
                <ele>377.100000</ele>
                <time>2015-10-12T14:04:07Z</time>
            </trkpt>
            <trkpt lon="-71.912005" lat="44.589638">
                <ele>377.100000</ele>
                <time>2015-10-12T14:04:09Z</time>
            </trkpt>
            <trkpt lon="-71.911957" lat="44.589637">
                <ele>377.200000</ele>
                <time>2015-10-12T14:04:11Z</time>
            </trkpt>
            <trkpt lon="-71.911906" lat="44.589628">
                <ele>377.300000</ele>
                <time>2015-10-12T14:04:13Z</time>
            </trkpt>
            <trkpt lon="-71.911852" lat="44.589629">
                <ele>377.400000</ele>
                <time>2015-10-12T14:04:15Z</time>
            </trkpt>
            <trkpt lon="-71.911799" lat="44.589632">
                <ele>377.600000</ele>
                <time>2015-10-12T14:04:17Z</time>
            </trkpt>
            <trkpt lon="-71.911744" lat="44.589635">
                <ele>377.900000</ele>
                <time>2015-10-12T14:04:19Z</time>
            </trkpt>
            <trkpt lon="-71.911693" lat="44.589634">
                <ele>378.200000</ele>
                <time>2015-10-12T14:04:21Z</time>
            </trkpt>
            <trkpt lon="-71.911650" lat="44.589635">
                <ele>378.600000</ele>
                <time>2015-10-12T14:04:22Z</time>
            </trkpt>
            <trkpt lon="-71.911586" lat="44.589633">
                <ele>379.200000</ele>
                <time>2015-10-12T14:04:24Z</time>
            </trkpt>
            <trkpt lon="-71.911522" lat="44.589637">
                <ele>379.900000</ele>
                <time>2015-10-12T14:04:26Z</time>
            </trkpt>
            <trkpt lon="-71.911463" lat="44.589652">
                <ele>380.400000</ele>
                <time>2015-10-12T14:04:28Z</time>
            </trkpt>
            <trkpt lon="-71.911417" lat="44.589669">
                <ele>380.700000</ele>
                <time>2015-10-12T14:04:30Z</time>
            </trkpt>
            <trkpt lon="-71.911368" lat="44.589687">
                <ele>381.200000</ele>
                <time>2015-10-12T14:04:32Z</time>
            </trkpt>
            <trkpt lon="-71.911324" lat="44.589700">
                <ele>381.700000</ele>
                <time>2015-10-12T14:04:34Z</time>
            </trkpt>
            <trkpt lon="-71.911289" lat="44.589717">
                <ele>381.900000</ele>
                <time>2015-10-12T14:04:36Z</time>
            </trkpt>
            <trkpt lon="-71.911257" lat="44.589738">
                <ele>382.100000</ele>
                <time>2015-10-12T14:04:38Z</time>
            </trkpt>
            <trkpt lon="-71.911228" lat="44.589759">
                <ele>382.200000</ele>
                <time>2015-10-12T14:04:40Z</time>
            </trkpt>
            <trkpt lon="-71.911194" lat="44.589778">
                <ele>382.200000</ele>
                <time>2015-10-12T14:04:42Z</time>
            </trkpt>
            <trkpt lon="-71.911155" lat="44.589800">
                <ele>382.200000</ele>
                <time>2015-10-12T14:04:44Z</time>
            </trkpt>
            <trkpt lon="-71.911119" lat="44.589818">
                <ele>382.100000</ele>
                <time>2015-10-12T14:04:45Z</time>
            </trkpt>
            <trkpt lon="-71.911066" lat="44.589831">
                <ele>382.000000</ele>
                <time>2015-10-12T14:04:47Z</time>
            </trkpt>
            <trkpt lon="-71.911020" lat="44.589844">
                <ele>382.000000</ele>
                <time>2015-10-12T14:04:49Z</time>
            </trkpt>
            <trkpt lon="-71.910958" lat="44.589858">
                <ele>382.100000</ele>
                <time>2015-10-12T14:04:51Z</time>
            </trkpt>
            <trkpt lon="-71.910914" lat="44.589879">
                <ele>382.300000</ele>
                <time>2015-10-12T14:04:53Z</time>
            </trkpt>
            <trkpt lon="-71.910882" lat="44.589905">
                <ele>382.500000</ele>
                <time>2015-10-12T14:04:55Z</time>
            </trkpt>
            <trkpt lon="-71.910859" lat="44.589934">
                <ele>382.600000</ele>
                <time>2015-10-12T14:04:57Z</time>
            </trkpt>
            <trkpt lon="-71.910831" lat="44.589954">
                <ele>382.800000</ele>
                <time>2015-10-12T14:04:59Z</time>
            </trkpt>
            <trkpt lon="-71.910798" lat="44.589971">
                <ele>383.300000</ele>
                <time>2015-10-12T14:05:01Z</time>
            </trkpt>
            <trkpt lon="-71.910758" lat="44.589995">
                <ele>384.000000</ele>
                <time>2015-10-12T14:05:03Z</time>
            </trkpt>
            <trkpt lon="-71.910719" lat="44.590029">
                <ele>384.600000</ele>
                <time>2015-10-12T14:05:05Z</time>
            </trkpt>
            <trkpt lon="-71.910691" lat="44.590068">
                <ele>385.200000</ele>
                <time>2015-10-12T14:05:07Z</time>
            </trkpt>
            <trkpt lon="-71.910661" lat="44.590105">
                <ele>385.700000</ele>
                <time>2015-10-12T14:05:09Z</time>
            </trkpt>
            <trkpt lon="-71.910623" lat="44.590130">
                <ele>386.200000</ele>
                <time>2015-10-12T14:05:11Z</time>
            </trkpt>
            <trkpt lon="-71.910575" lat="44.590146">
                <ele>386.800000</ele>
                <time>2015-10-12T14:05:13Z</time>
            </trkpt>
            <trkpt lon="-71.910524" lat="44.590159">
                <ele>387.400000</ele>
                <time>2015-10-12T14:05:15Z</time>
            </trkpt>
            <trkpt lon="-71.910481" lat="44.590176">
                <ele>388.100000</ele>
                <time>2015-10-12T14:05:17Z</time>
            </trkpt>
            <trkpt lon="-71.910446" lat="44.590190">
                <ele>388.600000</ele>
                <time>2015-10-12T14:05:18Z</time>
            </trkpt>
            <trkpt lon="-71.910396" lat="44.590217">
                <ele>389.400000</ele>
                <time>2015-10-12T14:05:20Z</time>
            </trkpt>
            <trkpt lon="-71.910351" lat="44.590246">
                <ele>390.200000</ele>
                <time>2015-10-12T14:05:22Z</time>
            </trkpt>
            <trkpt lon="-71.910311" lat="44.590272">
                <ele>390.900000</ele>
                <time>2015-10-12T14:05:24Z</time>
            </trkpt>
            <trkpt lon="-71.910272" lat="44.590295">
                <ele>391.500000</ele>
                <time>2015-10-12T14:05:26Z</time>
            </trkpt>
            <trkpt lon="-71.910236" lat="44.590318">
                <ele>392.000000</ele>
                <time>2015-10-12T14:05:28Z</time>
            </trkpt>
            <trkpt lon="-71.910203" lat="44.590347">
                <ele>392.400000</ele>
                <time>2015-10-12T14:05:30Z</time>
            </trkpt>
            <trkpt lon="-71.910171" lat="44.590377">
                <ele>392.600000</ele>
                <time>2015-10-12T14:05:32Z</time>
            </trkpt>
            <trkpt lon="-71.910141" lat="44.590409">
                <ele>392.700000</ele>
                <time>2015-10-12T14:05:34Z</time>
            </trkpt>
            <trkpt lon="-71.910116" lat="44.590444">
                <ele>392.700000</ele>
                <time>2015-10-12T14:05:36Z</time>
            </trkpt>
            <trkpt lon="-71.910095" lat="44.590473">
                <ele>392.600000</ele>
                <time>2015-10-12T14:05:38Z</time>
            </trkpt>
            <trkpt lon="-71.910070" lat="44.590502">
                <ele>392.500000</ele>
                <time>2015-10-12T14:05:40Z</time>
            </trkpt>
            <trkpt lon="-71.910041" lat="44.590529">
                <ele>392.500000</ele>
                <time>2015-10-12T14:05:42Z</time>
            </trkpt>
            <trkpt lon="-71.910010" lat="44.590558">
                <ele>392.400000</ele>
                <time>2015-10-12T14:05:44Z</time>
            </trkpt>
            <trkpt lon="-71.909980" lat="44.590586">
                <ele>392.400000</ele>
                <time>2015-10-12T14:05:46Z</time>
            </trkpt>
            <trkpt lon="-71.909955" lat="44.590616">
                <ele>392.300000</ele>
                <time>2015-10-12T14:05:48Z</time>
            </trkpt>
            <trkpt lon="-71.909930" lat="44.590644">
                <ele>392.500000</ele>
                <time>2015-10-12T14:05:50Z</time>
            </trkpt>
            <trkpt lon="-71.909900" lat="44.590673">
                <ele>392.700000</ele>
                <time>2015-10-12T14:05:52Z</time>
            </trkpt>
            <trkpt lon="-71.909862" lat="44.590709">
                <ele>393.000000</ele>
                <time>2015-10-12T14:05:54Z</time>
            </trkpt>
            <trkpt lon="-71.909814" lat="44.590749">
                <ele>393.700000</ele>
                <time>2015-10-12T14:05:56Z</time>
            </trkpt>
            <trkpt lon="-71.909771" lat="44.590786">
                <ele>394.400000</ele>
                <time>2015-10-12T14:05:58Z</time>
            </trkpt>
            <trkpt lon="-71.909732" lat="44.590819">
                <ele>395.000000</ele>
                <time>2015-10-12T14:06:00Z</time>
            </trkpt>
            <trkpt lon="-71.909699" lat="44.590852">
                <ele>395.500000</ele>
                <time>2015-10-12T14:06:02Z</time>
            </trkpt>
            <trkpt lon="-71.909670" lat="44.590885">
                <ele>395.900000</ele>
                <time>2015-10-12T14:06:04Z</time>
            </trkpt>
            <trkpt lon="-71.909639" lat="44.590918">
                <ele>396.200000</ele>
                <time>2015-10-12T14:06:06Z</time>
            </trkpt>
            <trkpt lon="-71.909607" lat="44.590950">
                <ele>396.500000</ele>
                <time>2015-10-12T14:06:08Z</time>
            </trkpt>
            <trkpt lon="-71.909579" lat="44.590982">
                <ele>396.700000</ele>
                <time>2015-10-12T14:06:10Z</time>
            </trkpt>
            <trkpt lon="-71.909554" lat="44.591015">
                <ele>396.900000</ele>
                <time>2015-10-12T14:06:12Z</time>
            </trkpt>
            <trkpt lon="-71.909530" lat="44.591047">
                <ele>397.000000</ele>
                <time>2015-10-12T14:06:14Z</time>
            </trkpt>
            <trkpt lon="-71.909499" lat="44.591077">
                <ele>397.200000</ele>
                <time>2015-10-12T14:06:16Z</time>
            </trkpt>
            <trkpt lon="-71.909469" lat="44.591106">
                <ele>397.400000</ele>
                <time>2015-10-12T14:06:18Z</time>
            </trkpt>
            <trkpt lon="-71.909434" lat="44.591126">
                <ele>397.700000</ele>
                <time>2015-10-12T14:06:20Z</time>
            </trkpt>
            <trkpt lon="-71.909395" lat="44.591143">
                <ele>398.000000</ele>
                <time>2015-10-12T14:06:22Z</time>
            </trkpt>
            <trkpt lon="-71.909355" lat="44.591151">
                <ele>398.400000</ele>
                <time>2015-10-12T14:06:24Z</time>
            </trkpt>
            <trkpt lon="-71.909314" lat="44.591152">
                <ele>398.800000</ele>
                <time>2015-10-12T14:06:26Z</time>
            </trkpt>
            <trkpt lon="-71.909274" lat="44.591146">
                <ele>399.300000</ele>
                <time>2015-10-12T14:06:28Z</time>
            </trkpt>
            <trkpt lon="-71.909237" lat="44.591129">
                <ele>399.800000</ele>
                <time>2015-10-12T14:06:30Z</time>
            </trkpt>
            <trkpt lon="-71.909200" lat="44.591108">
                <ele>400.200000</ele>
                <time>2015-10-12T14:06:32Z</time>
            </trkpt>
            <trkpt lon="-71.909163" lat="44.591093">
                <ele>400.700000</ele>
                <time>2015-10-12T14:06:34Z</time>
            </trkpt>
            <trkpt lon="-71.909124" lat="44.591079">
                <ele>401.200000</ele>
                <time>2015-10-12T14:06:36Z</time>
            </trkpt>
            <trkpt lon="-71.909083" lat="44.591064">
                <ele>401.800000</ele>
                <time>2015-10-12T14:06:38Z</time>
            </trkpt>
            <trkpt lon="-71.909043" lat="44.591052">
                <ele>402.400000</ele>
                <time>2015-10-12T14:06:40Z</time>
            </trkpt>
            <trkpt lon="-71.909008" lat="44.591035">
                <ele>403.000000</ele>
                <time>2015-10-12T14:06:42Z</time>
            </trkpt>
            <trkpt lon="-71.908972" lat="44.591016">
                <ele>403.500000</ele>
                <time>2015-10-12T14:06:44Z</time>
            </trkpt>
            <trkpt lon="-71.908937" lat="44.590997">
                <ele>404.000000</ele>
                <time>2015-10-12T14:06:46Z</time>
            </trkpt>
            <trkpt lon="-71.908901" lat="44.590979">
                <ele>404.600000</ele>
                <time>2015-10-12T14:06:48Z</time>
            </trkpt>
            <trkpt lon="-71.908867" lat="44.590961">
                <ele>405.100000</ele>
                <time>2015-10-12T14:06:50Z</time>
            </trkpt>
            <trkpt lon="-71.908829" lat="44.590949">
                <ele>405.600000</ele>
                <time>2015-10-12T14:06:52Z</time>
            </trkpt>
            <trkpt lon="-71.908792" lat="44.590936">
                <ele>406.100000</ele>
                <time>2015-10-12T14:06:54Z</time>
            </trkpt>
            <trkpt lon="-71.908758" lat="44.590924">
                <ele>406.600000</ele>
                <time>2015-10-12T14:06:56Z</time>
            </trkpt>
            <trkpt lon="-71.908722" lat="44.590908">
                <ele>407.000000</ele>
                <time>2015-10-12T14:06:58Z</time>
            </trkpt>
            <trkpt lon="-71.908686" lat="44.590889">
                <ele>407.400000</ele>
                <time>2015-10-12T14:07:00Z</time>
            </trkpt>
            <trkpt lon="-71.908654" lat="44.590868">
                <ele>407.800000</ele>
                <time>2015-10-12T14:07:02Z</time>
            </trkpt>
            <trkpt lon="-71.908635" lat="44.590838">
                <ele>408.000000</ele>
                <time>2015-10-12T14:07:04Z</time>
            </trkpt>
            <trkpt lon="-71.908605" lat="44.590811">
                <ele>408.500000</ele>
                <time>2015-10-12T14:07:06Z</time>
            </trkpt>
            <trkpt lon="-71.908560" lat="44.590793">
                <ele>409.000000</ele>
                <time>2015-10-12T14:07:08Z</time>
            </trkpt>
            <trkpt lon="-71.908508" lat="44.590783">
                <ele>409.500000</ele>
                <time>2015-10-12T14:07:10Z</time>
            </trkpt>
            <trkpt lon="-71.908456" lat="44.590775">
                <ele>410.000000</ele>
                <time>2015-10-12T14:07:12Z</time>
            </trkpt>
            <trkpt lon="-71.908407" lat="44.590763">
                <ele>410.400000</ele>
                <time>2015-10-12T14:07:14Z</time>
            </trkpt>
            <trkpt lon="-71.908365" lat="44.590750">
                <ele>410.800000</ele>
                <time>2015-10-12T14:07:16Z</time>
            </trkpt>
            <trkpt lon="-71.908328" lat="44.590737">
                <ele>411.100000</ele>
                <time>2015-10-12T14:07:18Z</time>
            </trkpt>
            <trkpt lon="-71.908297" lat="44.590717">
                <ele>411.600000</ele>
                <time>2015-10-12T14:07:20Z</time>
            </trkpt>
            <trkpt lon="-71.908270" lat="44.590698">
                <ele>412.000000</ele>
                <time>2015-10-12T14:07:22Z</time>
            </trkpt>
            <trkpt lon="-71.908230" lat="44.590668">
                <ele>412.800000</ele>
                <time>2015-10-12T14:07:25Z</time>
            </trkpt>
            <trkpt lon="-71.908198" lat="44.590643">
                <ele>413.400000</ele>
                <time>2015-10-12T14:07:27Z</time>
            </trkpt>
            <trkpt lon="-71.908157" lat="44.590620">
                <ele>414.000000</ele>
                <time>2015-10-12T14:07:29Z</time>
            </trkpt>
            <trkpt lon="-71.908115" lat="44.590599">
                <ele>414.600000</ele>
                <time>2015-10-12T14:07:31Z</time>
            </trkpt>
            <trkpt lon="-71.908076" lat="44.590579">
                <ele>415.200000</ele>
                <time>2015-10-12T14:07:33Z</time>
            </trkpt>
            <trkpt lon="-71.908038" lat="44.590559">
                <ele>415.800000</ele>
                <time>2015-10-12T14:07:35Z</time>
            </trkpt>
            <trkpt lon="-71.908001" lat="44.590541">
                <ele>416.300000</ele>
                <time>2015-10-12T14:07:37Z</time>
            </trkpt>
            <trkpt lon="-71.907961" lat="44.590523">
                <ele>416.700000</ele>
                <time>2015-10-12T14:07:39Z</time>
            </trkpt>
            <trkpt lon="-71.907923" lat="44.590503">
                <ele>417.200000</ele>
                <time>2015-10-12T14:07:41Z</time>
            </trkpt>
            <trkpt lon="-71.907882" lat="44.590484">
                <ele>417.600000</ele>
                <time>2015-10-12T14:07:43Z</time>
            </trkpt>
            <trkpt lon="-71.907842" lat="44.590466">
                <ele>418.000000</ele>
                <time>2015-10-12T14:07:45Z</time>
            </trkpt>
            <trkpt lon="-71.907803" lat="44.590444">
                <ele>418.500000</ele>
                <time>2015-10-12T14:07:47Z</time>
            </trkpt>
            <trkpt lon="-71.907770" lat="44.590421">
                <ele>419.000000</ele>
                <time>2015-10-12T14:07:49Z</time>
            </trkpt>
            <trkpt lon="-71.907735" lat="44.590396">
                <ele>419.400000</ele>
                <time>2015-10-12T14:07:51Z</time>
            </trkpt>
            <trkpt lon="-71.907698" lat="44.590375">
                <ele>419.700000</ele>
                <time>2015-10-12T14:07:53Z</time>
            </trkpt>
            <trkpt lon="-71.907657" lat="44.590359">
                <ele>419.800000</ele>
                <time>2015-10-12T14:07:55Z</time>
            </trkpt>
            <trkpt lon="-71.907616" lat="44.590354">
                <ele>419.800000</ele>
                <time>2015-10-12T14:07:57Z</time>
            </trkpt>
            <trkpt lon="-71.907576" lat="44.590356">
                <ele>419.600000</ele>
                <time>2015-10-12T14:07:59Z</time>
            </trkpt>
            <trkpt lon="-71.907540" lat="44.590367">
                <ele>419.300000</ele>
                <time>2015-10-12T14:08:01Z</time>
            </trkpt>
            <trkpt lon="-71.907502" lat="44.590379">
                <ele>419.000000</ele>
                <time>2015-10-12T14:08:03Z</time>
            </trkpt>
            <trkpt lon="-71.907483" lat="44.590411">
                <ele>418.500000</ele>
                <time>2015-10-12T14:08:05Z</time>
            </trkpt>
            <trkpt lon="-71.907458" lat="44.590442">
                <ele>418.100000</ele>
                <time>2015-10-12T14:08:07Z</time>
            </trkpt>
            <trkpt lon="-71.907428" lat="44.590470">
                <ele>417.900000</ele>
                <time>2015-10-12T14:08:09Z</time>
            </trkpt>
            <trkpt lon="-71.907392" lat="44.590490">
                <ele>417.800000</ele>
                <time>2015-10-12T14:08:11Z</time>
            </trkpt>
            <trkpt lon="-71.907352" lat="44.590505">
                <ele>417.900000</ele>
                <time>2015-10-12T14:08:13Z</time>
            </trkpt>
            <trkpt lon="-71.907305" lat="44.590520">
                <ele>418.200000</ele>
                <time>2015-10-12T14:08:15Z</time>
            </trkpt>
            <trkpt lon="-71.907257" lat="44.590536">
                <ele>418.500000</ele>
                <time>2015-10-12T14:08:17Z</time>
            </trkpt>
            <trkpt lon="-71.907208" lat="44.590554">
                <ele>418.900000</ele>
                <time>2015-10-12T14:08:19Z</time>
            </trkpt>
            <trkpt lon="-71.907152" lat="44.590572">
                <ele>419.500000</ele>
                <time>2015-10-12T14:08:21Z</time>
            </trkpt>
            <trkpt lon="-71.907090" lat="44.590587">
                <ele>420.200000</ele>
                <time>2015-10-12T14:08:23Z</time>
            </trkpt>
            <trkpt lon="-71.907028" lat="44.590591">
                <ele>420.900000</ele>
                <time>2015-10-12T14:08:25Z</time>
            </trkpt>
            <trkpt lon="-71.906970" lat="44.590581">
                <ele>421.400000</ele>
                <time>2015-10-12T14:08:27Z</time>
            </trkpt>
            <trkpt lon="-71.906922" lat="44.590565">
                <ele>421.900000</ele>
                <time>2015-10-12T14:08:29Z</time>
            </trkpt>
            <trkpt lon="-71.906902" lat="44.590527">
                <ele>422.100000</ele>
                <time>2015-10-12T14:08:31Z</time>
            </trkpt>
            <trkpt lon="-71.906878" lat="44.590494">
                <ele>422.200000</ele>
                <time>2015-10-12T14:08:33Z</time>
            </trkpt>
            <trkpt lon="-71.906861" lat="44.590461">
                <ele>422.200000</ele>
                <time>2015-10-12T14:08:35Z</time>
            </trkpt>
            <trkpt lon="-71.906854" lat="44.590425">
                <ele>422.200000</ele>
                <time>2015-10-12T14:08:37Z</time>
            </trkpt>
            <trkpt lon="-71.906854" lat="44.590392">
                <ele>422.100000</ele>
                <time>2015-10-12T14:08:39Z</time>
            </trkpt>
            <trkpt lon="-71.906868" lat="44.590359">
                <ele>421.900000</ele>
                <time>2015-10-12T14:08:41Z</time>
            </trkpt>
            <trkpt lon="-71.906874" lat="44.590326">
                <ele>421.800000</ele>
                <time>2015-10-12T14:08:43Z</time>
            </trkpt>
            <trkpt lon="-71.906881" lat="44.590292">
                <ele>421.800000</ele>
                <time>2015-10-12T14:08:45Z</time>
            </trkpt>
            <trkpt lon="-71.906888" lat="44.590256">
                <ele>421.800000</ele>
                <time>2015-10-12T14:08:47Z</time>
            </trkpt>
            <trkpt lon="-71.906903" lat="44.590220">
                <ele>421.700000</ele>
                <time>2015-10-12T14:08:49Z</time>
            </trkpt>
            <trkpt lon="-71.906926" lat="44.590183">
                <ele>421.700000</ele>
                <time>2015-10-12T14:08:51Z</time>
            </trkpt>
            <trkpt lon="-71.906954" lat="44.590143">
                <ele>421.800000</ele>
                <time>2015-10-12T14:08:53Z</time>
            </trkpt>
            <trkpt lon="-71.906969" lat="44.590104">
                <ele>422.000000</ele>
                <time>2015-10-12T14:08:55Z</time>
            </trkpt>
            <trkpt lon="-71.906969" lat="44.590063">
                <ele>422.300000</ele>
                <time>2015-10-12T14:08:57Z</time>
            </trkpt>
            <trkpt lon="-71.906961" lat="44.590021">
                <ele>422.700000</ele>
                <time>2015-10-12T14:08:59Z</time>
            </trkpt>
            <trkpt lon="-71.906956" lat="44.589980">
                <ele>423.000000</ele>
                <time>2015-10-12T14:09:01Z</time>
            </trkpt>
            <trkpt lon="-71.906949" lat="44.589939">
                <ele>423.400000</ele>
                <time>2015-10-12T14:09:03Z</time>
            </trkpt>
            <trkpt lon="-71.906927" lat="44.589899">
                <ele>423.700000</ele>
                <time>2015-10-12T14:09:05Z</time>
            </trkpt>
            <trkpt lon="-71.906890" lat="44.589860">
                <ele>424.100000</ele>
                <time>2015-10-12T14:09:07Z</time>
            </trkpt>
            <trkpt lon="-71.906843" lat="44.589831">
                <ele>424.600000</ele>
                <time>2015-10-12T14:09:09Z</time>
            </trkpt>
            <trkpt lon="-71.906791" lat="44.589803">
                <ele>425.300000</ele>
                <time>2015-10-12T14:09:11Z</time>
            </trkpt>
            <trkpt lon="-71.906733" lat="44.589777">
                <ele>426.100000</ele>
                <time>2015-10-12T14:09:13Z</time>
            </trkpt>
            <trkpt lon="-71.906678" lat="44.589750">
                <ele>427.000000</ele>
                <time>2015-10-12T14:09:15Z</time>
            </trkpt>
            <trkpt lon="-71.906632" lat="44.589720">
                <ele>427.700000</ele>
                <time>2015-10-12T14:09:17Z</time>
            </trkpt>
            <trkpt lon="-71.906588" lat="44.589689">
                <ele>428.200000</ele>
                <time>2015-10-12T14:09:19Z</time>
            </trkpt>
            <trkpt lon="-71.906537" lat="44.589664">
                <ele>428.500000</ele>
                <time>2015-10-12T14:09:21Z</time>
            </trkpt>
            <trkpt lon="-71.906490" lat="44.589638">
                <ele>428.700000</ele>
                <time>2015-10-12T14:09:23Z</time>
            </trkpt>
            <trkpt lon="-71.906443" lat="44.589612">
                <ele>428.800000</ele>
                <time>2015-10-12T14:09:25Z</time>
            </trkpt>
            <trkpt lon="-71.906392" lat="44.589589">
                <ele>428.900000</ele>
                <time>2015-10-12T14:09:27Z</time>
            </trkpt>
            <trkpt lon="-71.906340" lat="44.589566">
                <ele>429.100000</ele>
                <time>2015-10-12T14:09:29Z</time>
            </trkpt>
            <trkpt lon="-71.906295" lat="44.589542">
                <ele>429.400000</ele>
                <time>2015-10-12T14:09:31Z</time>
            </trkpt>
            <trkpt lon="-71.906251" lat="44.589521">
                <ele>429.700000</ele>
                <time>2015-10-12T14:09:33Z</time>
            </trkpt>
            <trkpt lon="-71.906205" lat="44.589499">
                <ele>430.100000</ele>
                <time>2015-10-12T14:09:35Z</time>
            </trkpt>
            <trkpt lon="-71.906162" lat="44.589477">
                <ele>430.500000</ele>
                <time>2015-10-12T14:09:37Z</time>
            </trkpt>
            <trkpt lon="-71.906114" lat="44.589459">
                <ele>430.800000</ele>
                <time>2015-10-12T14:09:39Z</time>
            </trkpt>
            <trkpt lon="-71.906071" lat="44.589442">
                <ele>431.000000</ele>
                <time>2015-10-12T14:09:41Z</time>
            </trkpt>
            <trkpt lon="-71.906032" lat="44.589425">
                <ele>431.200000</ele>
                <time>2015-10-12T14:09:43Z</time>
            </trkpt>
            <trkpt lon="-71.905995" lat="44.589407">
                <ele>431.400000</ele>
                <time>2015-10-12T14:09:45Z</time>
            </trkpt>
            <trkpt lon="-71.905951" lat="44.589405">
                <ele>431.700000</ele>
                <time>2015-10-12T14:09:47Z</time>
            </trkpt>
            <trkpt lon="-71.905911" lat="44.589425">
                <ele>432.000000</ele>
                <time>2015-10-12T14:09:49Z</time>
            </trkpt>
            <trkpt lon="-71.905869" lat="44.589441">
                <ele>432.200000</ele>
                <time>2015-10-12T14:09:51Z</time>
            </trkpt>
            <trkpt lon="-71.905843" lat="44.589467">
                <ele>432.400000</ele>
                <time>2015-10-12T14:09:53Z</time>
            </trkpt>
            <trkpt lon="-71.905815" lat="44.589501">
                <ele>432.500000</ele>
                <time>2015-10-12T14:09:55Z</time>
            </trkpt>
            <trkpt lon="-71.905795" lat="44.589540">
                <ele>432.200000</ele>
                <time>2015-10-12T14:09:57Z</time>
            </trkpt>
            <trkpt lon="-71.905778" lat="44.589586">
                <ele>431.800000</ele>
                <time>2015-10-12T14:09:59Z</time>
            </trkpt>
            <trkpt lon="-71.905734" lat="44.589626">
                <ele>431.300000</ele>
                <time>2015-10-12T14:10:01Z</time>
            </trkpt>
            <trkpt lon="-71.905672" lat="44.589633">
                <ele>431.600000</ele>
                <time>2015-10-12T14:10:03Z</time>
            </trkpt>
            <trkpt lon="-71.905612" lat="44.589613">
                <ele>432.200000</ele>
                <time>2015-10-12T14:10:05Z</time>
            </trkpt>
            <trkpt lon="-71.905556" lat="44.589592">
                <ele>432.900000</ele>
                <time>2015-10-12T14:10:07Z</time>
            </trkpt>
            <trkpt lon="-71.905500" lat="44.589572">
                <ele>433.500000</ele>
                <time>2015-10-12T14:10:09Z</time>
            </trkpt>
            <trkpt lon="-71.905443" lat="44.589552">
                <ele>434.100000</ele>
                <time>2015-10-12T14:10:11Z</time>
            </trkpt>
            <trkpt lon="-71.905392" lat="44.589532">
                <ele>434.700000</ele>
                <time>2015-10-12T14:10:13Z</time>
            </trkpt>
            <trkpt lon="-71.905346" lat="44.589505">
                <ele>435.300000</ele>
                <time>2015-10-12T14:10:15Z</time>
            </trkpt>
            <trkpt lon="-71.905297" lat="44.589483">
                <ele>435.900000</ele>
                <time>2015-10-12T14:10:17Z</time>
            </trkpt>
            <trkpt lon="-71.905248" lat="44.589470">
                <ele>436.200000</ele>
                <time>2015-10-12T14:10:19Z</time>
            </trkpt>
            <trkpt lon="-71.905200" lat="44.589456">
                <ele>436.500000</ele>
                <time>2015-10-12T14:10:21Z</time>
            </trkpt>
            <trkpt lon="-71.905159" lat="44.589442">
                <ele>436.800000</ele>
                <time>2015-10-12T14:10:23Z</time>
            </trkpt>
            <trkpt lon="-71.905116" lat="44.589430">
                <ele>437.000000</ele>
                <time>2015-10-12T14:10:25Z</time>
            </trkpt>
            <trkpt lon="-71.905067" lat="44.589412">
                <ele>437.200000</ele>
                <time>2015-10-12T14:10:27Z</time>
            </trkpt>
            <trkpt lon="-71.905018" lat="44.589403">
                <ele>437.400000</ele>
                <time>2015-10-12T14:10:29Z</time>
            </trkpt>
            <trkpt lon="-71.904970" lat="44.589399">
                <ele>437.500000</ele>
                <time>2015-10-12T14:10:31Z</time>
            </trkpt>
            <trkpt lon="-71.904923" lat="44.589399">
                <ele>437.700000</ele>
                <time>2015-10-12T14:10:33Z</time>
            </trkpt>
            <trkpt lon="-71.904878" lat="44.589419">
                <ele>437.800000</ele>
                <time>2015-10-12T14:10:35Z</time>
            </trkpt>
            <trkpt lon="-71.904850" lat="44.589455">
                <ele>437.900000</ele>
                <time>2015-10-12T14:10:37Z</time>
            </trkpt>
            <trkpt lon="-71.904836" lat="44.589484">
                <ele>437.900000</ele>
                <time>2015-10-12T14:10:38Z</time>
            </trkpt>
            <trkpt lon="-71.904796" lat="44.589519">
                <ele>438.000000</ele>
                <time>2015-10-12T14:10:40Z</time>
            </trkpt>
            <trkpt lon="-71.904750" lat="44.589539">
                <ele>438.100000</ele>
                <time>2015-10-12T14:10:42Z</time>
            </trkpt>
            <trkpt lon="-71.904700" lat="44.589553">
                <ele>438.300000</ele>
                <time>2015-10-12T14:10:44Z</time>
            </trkpt>
            <trkpt lon="-71.904658" lat="44.589568">
                <ele>438.400000</ele>
                <time>2015-10-12T14:10:46Z</time>
            </trkpt>
            <trkpt lon="-71.904629" lat="44.589596">
                <ele>438.500000</ele>
                <time>2015-10-12T14:10:48Z</time>
            </trkpt>
            <trkpt lon="-71.904611" lat="44.589644">
                <ele>438.800000</ele>
                <time>2015-10-12T14:10:50Z</time>
            </trkpt>
            <trkpt lon="-71.904571" lat="44.589692">
                <ele>439.300000</ele>
                <time>2015-10-12T14:10:52Z</time>
            </trkpt>
            <trkpt lon="-71.904546" lat="44.589714">
                <ele>439.600000</ele>
                <time>2015-10-12T14:10:53Z</time>
            </trkpt>
            <trkpt lon="-71.904528" lat="44.589739">
                <ele>439.900000</ele>
                <time>2015-10-12T14:10:54Z</time>
            </trkpt>
            <trkpt lon="-71.904520" lat="44.589767">
                <ele>440.200000</ele>
                <time>2015-10-12T14:10:55Z</time>
            </trkpt>
            <trkpt lon="-71.904518" lat="44.589815">
                <ele>440.100000</ele>
                <time>2015-10-12T14:10:57Z</time>
            </trkpt>
            <trkpt lon="-71.904513" lat="44.589854">
                <ele>440.100000</ele>
                <time>2015-10-12T14:10:59Z</time>
            </trkpt>
            <trkpt lon="-71.904479" lat="44.589867">
                <ele>440.200000</ele>
                <time>2015-10-12T14:11:01Z</time>
            </trkpt>
            <trkpt lon="-71.904440" lat="44.589879">
                <ele>440.200000</ele>
                <time>2015-10-12T14:11:03Z</time>
            </trkpt>
            <trkpt lon="-71.904411" lat="44.589901">
                <ele>440.000000</ele>
                <time>2015-10-12T14:11:06Z</time>
            </trkpt>
            <trkpt lon="-71.904412" lat="44.589931">
                <ele>439.400000</ele>
                <time>2015-10-12T14:11:10Z</time>
            </trkpt>
            <trkpt lon="-71.904403" lat="44.589959">
                <ele>438.900000</ele>
                <time>2015-10-12T14:11:13Z</time>
            </trkpt>
            <trkpt lon="-71.904395" lat="44.589988">
                <ele>438.300000</ele>
                <time>2015-10-12T14:11:16Z</time>
            </trkpt>
            <trkpt lon="-71.904368" lat="44.590021">
                <ele>437.800000</ele>
                <time>2015-10-12T14:11:19Z</time>
            </trkpt>
            <trkpt lon="-71.904340" lat="44.590054">
                <ele>437.400000</ele>
                <time>2015-10-12T14:11:22Z</time>
            </trkpt>
            <trkpt lon="-71.904306" lat="44.590071">
                <ele>437.500000</ele>
                <time>2015-10-12T14:11:25Z</time>
            </trkpt>
            <trkpt lon="-71.904274" lat="44.590096">
                <ele>437.600000</ele>
                <time>2015-10-12T14:11:29Z</time>
            </trkpt>
            <trkpt lon="-71.904249" lat="44.590126">
                <ele>437.600000</ele>
                <time>2015-10-12T14:11:32Z</time>
            </trkpt>
            <trkpt lon="-71.904229" lat="44.590153">
                <ele>437.900000</ele>
                <time>2015-10-12T14:11:35Z</time>
            </trkpt>
            <trkpt lon="-71.904213" lat="44.590182">
                <ele>438.300000</ele>
                <time>2015-10-12T14:11:38Z</time>
            </trkpt>
            <trkpt lon="-71.904188" lat="44.590215">
                <ele>438.800000</ele>
                <time>2015-10-12T14:11:41Z</time>
            </trkpt>
            <trkpt lon="-71.904165" lat="44.590237">
                <ele>439.100000</ele>
                <time>2015-10-12T14:11:43Z</time>
            </trkpt>
            <trkpt lon="-71.904141" lat="44.590265">
                <ele>439.500000</ele>
                <time>2015-10-12T14:11:46Z</time>
            </trkpt>
            <trkpt lon="-71.904110" lat="44.590282">
                <ele>439.800000</ele>
                <time>2015-10-12T14:11:48Z</time>
            </trkpt>
            <trkpt lon="-71.904068" lat="44.590300">
                <ele>440.100000</ele>
                <time>2015-10-12T14:11:51Z</time>
            </trkpt>
            <trkpt lon="-71.904028" lat="44.590320">
                <ele>440.200000</ele>
                <time>2015-10-12T14:11:54Z</time>
            </trkpt>
            <trkpt lon="-71.903977" lat="44.590339">
                <ele>440.300000</ele>
                <time>2015-10-12T14:11:57Z</time>
            </trkpt>
            <trkpt lon="-71.903923" lat="44.590362">
                <ele>440.300000</ele>
                <time>2015-10-12T14:11:59Z</time>
            </trkpt>
            <trkpt lon="-71.903868" lat="44.590378">
                <ele>440.400000</ele>
                <time>2015-10-12T14:12:01Z</time>
            </trkpt>
            <trkpt lon="-71.903814" lat="44.590385">
                <ele>440.500000</ele>
                <time>2015-10-12T14:12:03Z</time>
            </trkpt>
            <trkpt lon="-71.903753" lat="44.590393">
                <ele>440.600000</ele>
                <time>2015-10-12T14:12:05Z</time>
            </trkpt>
            <trkpt lon="-71.903687" lat="44.590396">
                <ele>440.900000</ele>
                <time>2015-10-12T14:12:07Z</time>
            </trkpt>
            <trkpt lon="-71.903625" lat="44.590400">
                <ele>441.200000</ele>
                <time>2015-10-12T14:12:09Z</time>
            </trkpt>
            <trkpt lon="-71.903561" lat="44.590406">
                <ele>441.500000</ele>
                <time>2015-10-12T14:12:11Z</time>
            </trkpt>
            <trkpt lon="-71.903500" lat="44.590412">
                <ele>441.800000</ele>
                <time>2015-10-12T14:12:13Z</time>
            </trkpt>
            <trkpt lon="-71.903439" lat="44.590412">
                <ele>442.200000</ele>
                <time>2015-10-12T14:12:15Z</time>
            </trkpt>
            <trkpt lon="-71.903382" lat="44.590412">
                <ele>442.500000</ele>
                <time>2015-10-12T14:12:17Z</time>
            </trkpt>
            <trkpt lon="-71.903327" lat="44.590409">
                <ele>442.900000</ele>
                <time>2015-10-12T14:12:19Z</time>
            </trkpt>
            <trkpt lon="-71.903275" lat="44.590405">
                <ele>443.200000</ele>
                <time>2015-10-12T14:12:21Z</time>
            </trkpt>
            <trkpt lon="-71.903223" lat="44.590398">
                <ele>443.400000</ele>
                <time>2015-10-12T14:12:23Z</time>
            </trkpt>
            <trkpt lon="-71.903179" lat="44.590384">
                <ele>443.600000</ele>
                <time>2015-10-12T14:12:25Z</time>
            </trkpt>
            <trkpt lon="-71.903131" lat="44.590373">
                <ele>443.800000</ele>
                <time>2015-10-12T14:12:27Z</time>
            </trkpt>
            <trkpt lon="-71.903082" lat="44.590366">
                <ele>443.900000</ele>
                <time>2015-10-12T14:12:29Z</time>
            </trkpt>
            <trkpt lon="-71.903030" lat="44.590361">
                <ele>443.900000</ele>
                <time>2015-10-12T14:12:31Z</time>
            </trkpt>
            <trkpt lon="-71.902975" lat="44.590357">
                <ele>443.900000</ele>
                <time>2015-10-12T14:12:33Z</time>
            </trkpt>
            <trkpt lon="-71.902921" lat="44.590359">
                <ele>444.000000</ele>
                <time>2015-10-12T14:12:35Z</time>
            </trkpt>
            <trkpt lon="-71.902871" lat="44.590358">
                <ele>444.200000</ele>
                <time>2015-10-12T14:12:37Z</time>
            </trkpt>
            <trkpt lon="-71.902823" lat="44.590355">
                <ele>444.500000</ele>
                <time>2015-10-12T14:12:39Z</time>
            </trkpt>
            <trkpt lon="-71.902772" lat="44.590350">
                <ele>445.000000</ele>
                <time>2015-10-12T14:12:41Z</time>
            </trkpt>
            <trkpt lon="-71.902722" lat="44.590349">
                <ele>445.500000</ele>
                <time>2015-10-12T14:12:43Z</time>
            </trkpt>
            <trkpt lon="-71.902672" lat="44.590346">
                <ele>446.300000</ele>
                <time>2015-10-12T14:12:45Z</time>
            </trkpt>
            <trkpt lon="-71.902623" lat="44.590335">
                <ele>447.100000</ele>
                <time>2015-10-12T14:12:47Z</time>
            </trkpt>
            <trkpt lon="-71.902577" lat="44.590316">
                <ele>447.900000</ele>
                <time>2015-10-12T14:12:49Z</time>
            </trkpt>
            <trkpt lon="-71.902532" lat="44.590297">
                <ele>448.600000</ele>
                <time>2015-10-12T14:12:51Z</time>
            </trkpt>
            <trkpt lon="-71.902489" lat="44.590278">
                <ele>449.400000</ele>
                <time>2015-10-12T14:12:53Z</time>
            </trkpt>
            <trkpt lon="-71.902444" lat="44.590259">
                <ele>450.100000</ele>
                <time>2015-10-12T14:12:55Z</time>
            </trkpt>
            <trkpt lon="-71.902398" lat="44.590246">
                <ele>451.000000</ele>
                <time>2015-10-12T14:12:57Z</time>
            </trkpt>
            <trkpt lon="-71.902352" lat="44.590235">
                <ele>451.800000</ele>
                <time>2015-10-12T14:12:59Z</time>
            </trkpt>
            <trkpt lon="-71.902306" lat="44.590240">
                <ele>452.700000</ele>
                <time>2015-10-12T14:13:01Z</time>
            </trkpt>
            <trkpt lon="-71.902264" lat="44.590261">
                <ele>453.700000</ele>
                <time>2015-10-12T14:13:04Z</time>
            </trkpt>
            <trkpt lon="-71.902253" lat="44.590293">
                <ele>454.200000</ele>
                <time>2015-10-12T14:13:06Z</time>
            </trkpt>
            <trkpt lon="-71.902218" lat="44.590335">
                <ele>455.000000</ele>
                <time>2015-10-12T14:13:08Z</time>
            </trkpt>
            <trkpt lon="-71.902191" lat="44.590365">
                <ele>455.400000</ele>
                <time>2015-10-12T14:13:09Z</time>
            </trkpt>
            <trkpt lon="-71.902166" lat="44.590396">
                <ele>455.600000</ele>
                <time>2015-10-12T14:13:10Z</time>
            </trkpt>
            <trkpt lon="-71.902139" lat="44.590428">
                <ele>455.700000</ele>
                <time>2015-10-12T14:13:11Z</time>
            </trkpt>
            <trkpt lon="-71.902105" lat="44.590459">
                <ele>455.400000</ele>
                <time>2015-10-12T14:13:12Z</time>
            </trkpt>
            <trkpt lon="-71.902055" lat="44.590499">
                <ele>455.100000</ele>
                <time>2015-10-12T14:13:13Z</time>
            </trkpt>
            <trkpt lon="-71.901985" lat="44.590550">
                <ele>454.300000</ele>
                <time>2015-10-12T14:13:14Z</time>
            </trkpt>
            <trkpt lon="-71.901922" lat="44.590597">
                <ele>453.500000</ele>
                <time>2015-10-12T14:13:15Z</time>
            </trkpt>
            <trkpt lon="-71.901862" lat="44.590640">
                <ele>452.800000</ele>
                <time>2015-10-12T14:13:16Z</time>
            </trkpt>
            <trkpt lon="-71.901810" lat="44.590676">
                <ele>452.300000</ele>
                <time>2015-10-12T14:13:17Z</time>
            </trkpt>
            <trkpt lon="-71.901760" lat="44.590713">
                <ele>451.800000</ele>
                <time>2015-10-12T14:13:18Z</time>
            </trkpt>
            <trkpt lon="-71.901700" lat="44.590746">
                <ele>451.600000</ele>
                <time>2015-10-12T14:13:20Z</time>
            </trkpt>
            <trkpt lon="-71.901667" lat="44.590767">
                <ele>451.300000</ele>
                <time>2015-10-12T14:13:21Z</time>
            </trkpt>
            <trkpt lon="-71.901634" lat="44.590788">
                <ele>451.100000</ele>
                <time>2015-10-12T14:13:22Z</time>
            </trkpt>
            <trkpt lon="-71.901597" lat="44.590813">
                <ele>450.600000</ele>
                <time>2015-10-12T14:13:24Z</time>
            </trkpt>
            <trkpt lon="-71.901557" lat="44.590840">
                <ele>449.900000</ele>
                <time>2015-10-12T14:13:26Z</time>
            </trkpt>
            <trkpt lon="-71.901516" lat="44.590868">
                <ele>449.400000</ele>
                <time>2015-10-12T14:13:28Z</time>
            </trkpt>
            <trkpt lon="-71.901469" lat="44.590894">
                <ele>449.100000</ele>
                <time>2015-10-12T14:13:30Z</time>
            </trkpt>
            <trkpt lon="-71.901419" lat="44.590920">
                <ele>448.700000</ele>
                <time>2015-10-12T14:13:32Z</time>
            </trkpt>
            <trkpt lon="-71.901355" lat="44.590948">
                <ele>448.300000</ele>
                <time>2015-10-12T14:13:34Z</time>
            </trkpt>
            <trkpt lon="-71.901319" lat="44.590961">
                <ele>448.100000</ele>
                <time>2015-10-12T14:13:35Z</time>
            </trkpt>
            <trkpt lon="-71.901243" lat="44.590982">
                <ele>447.900000</ele>
                <time>2015-10-12T14:13:37Z</time>
            </trkpt>
            <trkpt lon="-71.901205" lat="44.590990">
                <ele>447.900000</ele>
                <time>2015-10-12T14:13:38Z</time>
            </trkpt>
            <trkpt lon="-71.901167" lat="44.590995">
                <ele>447.900000</ele>
                <time>2015-10-12T14:13:39Z</time>
            </trkpt>
            <trkpt lon="-71.901088" lat="44.591006">
                <ele>448.100000</ele>
                <time>2015-10-12T14:13:41Z</time>
            </trkpt>
            <trkpt lon="-71.901047" lat="44.591011">
                <ele>448.300000</ele>
                <time>2015-10-12T14:13:42Z</time>
            </trkpt>
            <trkpt lon="-71.900998" lat="44.591019">
                <ele>448.500000</ele>
                <time>2015-10-12T14:13:43Z</time>
            </trkpt>
            <trkpt lon="-71.900953" lat="44.591026">
                <ele>448.800000</ele>
                <time>2015-10-12T14:13:44Z</time>
            </trkpt>
            <trkpt lon="-71.900914" lat="44.591031">
                <ele>449.000000</ele>
                <time>2015-10-12T14:13:45Z</time>
            </trkpt>
            <trkpt lon="-71.900858" lat="44.591032">
                <ele>449.500000</ele>
                <time>2015-10-12T14:13:47Z</time>
            </trkpt>
            <trkpt lon="-71.900812" lat="44.591033">
                <ele>449.900000</ele>
                <time>2015-10-12T14:13:49Z</time>
            </trkpt>
            <trkpt lon="-71.900766" lat="44.591037">
                <ele>450.200000</ele>
                <time>2015-10-12T14:13:51Z</time>
            </trkpt>
            <trkpt lon="-71.900722" lat="44.591042">
                <ele>450.300000</ele>
                <time>2015-10-12T14:13:53Z</time>
            </trkpt>
            <trkpt lon="-71.900677" lat="44.591045">
                <ele>450.400000</ele>
                <time>2015-10-12T14:13:55Z</time>
            </trkpt>
            <trkpt lon="-71.900632" lat="44.591047">
                <ele>450.600000</ele>
                <time>2015-10-12T14:13:57Z</time>
            </trkpt>
            <trkpt lon="-71.900587" lat="44.591048">
                <ele>450.700000</ele>
                <time>2015-10-12T14:13:59Z</time>
            </trkpt>
            <trkpt lon="-71.900541" lat="44.591047">
                <ele>450.800000</ele>
                <time>2015-10-12T14:14:01Z</time>
            </trkpt>
            <trkpt lon="-71.900491" lat="44.591048">
                <ele>450.900000</ele>
                <time>2015-10-12T14:14:03Z</time>
            </trkpt>
            <trkpt lon="-71.900437" lat="44.591043">
                <ele>451.100000</ele>
                <time>2015-10-12T14:14:05Z</time>
            </trkpt>
            <trkpt lon="-71.900382" lat="44.591039">
                <ele>451.300000</ele>
                <time>2015-10-12T14:14:07Z</time>
            </trkpt>
            <trkpt lon="-71.900328" lat="44.591041">
                <ele>451.400000</ele>
                <time>2015-10-12T14:14:09Z</time>
            </trkpt>
            <trkpt lon="-71.900272" lat="44.591046">
                <ele>451.700000</ele>
                <time>2015-10-12T14:14:11Z</time>
            </trkpt>
            <trkpt lon="-71.900216" lat="44.591048">
                <ele>452.000000</ele>
                <time>2015-10-12T14:14:13Z</time>
            </trkpt>
            <trkpt lon="-71.900164" lat="44.591048">
                <ele>452.400000</ele>
                <time>2015-10-12T14:14:15Z</time>
            </trkpt>
            <trkpt lon="-71.900113" lat="44.591047">
                <ele>452.900000</ele>
                <time>2015-10-12T14:14:17Z</time>
            </trkpt>
            <trkpt lon="-71.900061" lat="44.591052">
                <ele>453.500000</ele>
                <time>2015-10-12T14:14:19Z</time>
            </trkpt>
            <trkpt lon="-71.900012" lat="44.591058">
                <ele>454.100000</ele>
                <time>2015-10-12T14:14:21Z</time>
            </trkpt>
            <trkpt lon="-71.899964" lat="44.591061">
                <ele>454.800000</ele>
                <time>2015-10-12T14:14:23Z</time>
            </trkpt>
            <trkpt lon="-71.899917" lat="44.591059">
                <ele>455.500000</ele>
                <time>2015-10-12T14:14:25Z</time>
            </trkpt>
            <trkpt lon="-71.899871" lat="44.591056">
                <ele>456.300000</ele>
                <time>2015-10-12T14:14:27Z</time>
            </trkpt>
            <trkpt lon="-71.899823" lat="44.591055">
                <ele>457.000000</ele>
                <time>2015-10-12T14:14:29Z</time>
            </trkpt>
            <trkpt lon="-71.899775" lat="44.591056">
                <ele>457.600000</ele>
                <time>2015-10-12T14:14:31Z</time>
            </trkpt>
            <trkpt lon="-71.899724" lat="44.591059">
                <ele>458.100000</ele>
                <time>2015-10-12T14:14:33Z</time>
            </trkpt>
            <trkpt lon="-71.899669" lat="44.591063">
                <ele>458.600000</ele>
                <time>2015-10-12T14:14:35Z</time>
            </trkpt>
            <trkpt lon="-71.899614" lat="44.591064">
                <ele>459.000000</ele>
                <time>2015-10-12T14:14:37Z</time>
            </trkpt>
            <trkpt lon="-71.899555" lat="44.591058">
                <ele>459.500000</ele>
                <time>2015-10-12T14:14:39Z</time>
            </trkpt>
            <trkpt lon="-71.899497" lat="44.591054">
                <ele>460.000000</ele>
                <time>2015-10-12T14:14:41Z</time>
            </trkpt>
            <trkpt lon="-71.899441" lat="44.591047">
                <ele>460.500000</ele>
                <time>2015-10-12T14:14:43Z</time>
            </trkpt>
            <trkpt lon="-71.899383" lat="44.591042">
                <ele>461.100000</ele>
                <time>2015-10-12T14:14:45Z</time>
            </trkpt>
            <trkpt lon="-71.899329" lat="44.591037">
                <ele>461.700000</ele>
                <time>2015-10-12T14:14:47Z</time>
            </trkpt>
            <trkpt lon="-71.899282" lat="44.591029">
                <ele>462.300000</ele>
                <time>2015-10-12T14:14:49Z</time>
            </trkpt>
            <trkpt lon="-71.899238" lat="44.591021">
                <ele>462.900000</ele>
                <time>2015-10-12T14:14:51Z</time>
            </trkpt>
            <trkpt lon="-71.899199" lat="44.591013">
                <ele>463.500000</ele>
                <time>2015-10-12T14:14:53Z</time>
            </trkpt>
            <trkpt lon="-71.899158" lat="44.591009">
                <ele>464.000000</ele>
                <time>2015-10-12T14:14:56Z</time>
            </trkpt>
            <trkpt lon="-71.899114" lat="44.591008">
                <ele>464.500000</ele>
                <time>2015-10-12T14:14:59Z</time>
            </trkpt>
            <trkpt lon="-71.899058" lat="44.591005">
                <ele>465.100000</ele>
                <time>2015-10-12T14:15:02Z</time>
            </trkpt>
            <trkpt lon="-71.899010" lat="44.590993">
                <ele>465.600000</ele>
                <time>2015-10-12T14:15:05Z</time>
            </trkpt>
            <trkpt lon="-71.898992" lat="44.590955">
                <ele>466.200000</ele>
                <time>2015-10-12T14:15:08Z</time>
            </trkpt>
            <trkpt lon="-71.899011" lat="44.590923">
                <ele>466.400000</ele>
                <time>2015-10-12T14:15:10Z</time>
            </trkpt>
            <trkpt lon="-71.899046" lat="44.590894">
                <ele>466.400000</ele>
                <time>2015-10-12T14:15:12Z</time>
            </trkpt>
            <trkpt lon="-71.899086" lat="44.590869">
                <ele>466.200000</ele>
                <time>2015-10-12T14:15:14Z</time>
            </trkpt>
            <trkpt lon="-71.899123" lat="44.590845">
                <ele>466.100000</ele>
                <time>2015-10-12T14:15:16Z</time>
            </trkpt>
            <trkpt lon="-71.899156" lat="44.590823">
                <ele>465.800000</ele>
                <time>2015-10-12T14:15:18Z</time>
            </trkpt>
            <trkpt lon="-71.899185" lat="44.590798">
                <ele>465.700000</ele>
                <time>2015-10-12T14:15:20Z</time>
            </trkpt>
            <trkpt lon="-71.899207" lat="44.590775">
                <ele>465.600000</ele>
                <time>2015-10-12T14:15:22Z</time>
            </trkpt>
            <trkpt lon="-71.899230" lat="44.590745">
                <ele>465.600000</ele>
                <time>2015-10-12T14:16:23Z</time>
            </trkpt>
            <trkpt lon="-71.899261" lat="44.590715">
                <ele>465.400000</ele>
                <time>2015-10-12T14:16:25Z</time>
            </trkpt>
            <trkpt lon="-71.899294" lat="44.590681">
                <ele>465.400000</ele>
                <time>2015-10-12T14:16:27Z</time>
            </trkpt>
            <trkpt lon="-71.899324" lat="44.590648">
                <ele>465.400000</ele>
                <time>2015-10-12T14:16:29Z</time>
            </trkpt>
            <trkpt lon="-71.899354" lat="44.590616">
                <ele>465.300000</ele>
                <time>2015-10-12T14:16:31Z</time>
            </trkpt>
            <trkpt lon="-71.899381" lat="44.590581">
                <ele>465.400000</ele>
                <time>2015-10-12T14:16:33Z</time>
            </trkpt>
            <trkpt lon="-71.899416" lat="44.590550">
                <ele>465.400000</ele>
                <time>2015-10-12T14:16:35Z</time>
            </trkpt>
            <trkpt lon="-71.899457" lat="44.590526">
                <ele>465.200000</ele>
                <time>2015-10-12T14:16:37Z</time>
            </trkpt>
            <trkpt lon="-71.899490" lat="44.590501">
                <ele>465.100000</ele>
                <time>2015-10-12T14:16:39Z</time>
            </trkpt>
            <trkpt lon="-71.899518" lat="44.590473">
                <ele>465.300000</ele>
                <time>2015-10-12T14:16:41Z</time>
            </trkpt>
            <trkpt lon="-71.899542" lat="44.590444">
                <ele>465.500000</ele>
                <time>2015-10-12T14:16:43Z</time>
            </trkpt>
            <trkpt lon="-71.899565" lat="44.590410">
                <ele>465.800000</ele>
                <time>2015-10-12T14:16:45Z</time>
            </trkpt>
            <trkpt lon="-71.899593" lat="44.590378">
                <ele>466.100000</ele>
                <time>2015-10-12T14:16:47Z</time>
            </trkpt>
            <trkpt lon="-71.899631" lat="44.590346">
                <ele>466.400000</ele>
                <time>2015-10-12T14:16:49Z</time>
            </trkpt>
            <trkpt lon="-71.899675" lat="44.590319">
                <ele>466.500000</ele>
                <time>2015-10-12T14:16:51Z</time>
            </trkpt>
            <trkpt lon="-71.899724" lat="44.590296">
                <ele>466.700000</ele>
                <time>2015-10-12T14:16:53Z</time>
            </trkpt>
            <trkpt lon="-71.899768" lat="44.590275">
                <ele>466.800000</ele>
                <time>2015-10-12T14:16:55Z</time>
            </trkpt>
            <trkpt lon="-71.899807" lat="44.590249">
                <ele>464.300000</ele>
                <time>2015-10-12T14:16:57Z</time>
            </trkpt>
            <trkpt lon="-71.899840" lat="44.590220">
                <ele>464.500000</ele>
                <time>2015-10-12T14:16:59Z</time>
            </trkpt>
            <trkpt lon="-71.899863" lat="44.590192">
                <ele>464.600000</ele>
                <time>2015-10-12T14:17:01Z</time>
            </trkpt>
            <trkpt lon="-71.899888" lat="44.590164">
                <ele>464.900000</ele>
                <time>2015-10-12T14:17:03Z</time>
            </trkpt>
            <trkpt lon="-71.899927" lat="44.590142">
                <ele>465.200000</ele>
                <time>2015-10-12T14:17:05Z</time>
            </trkpt>
            <trkpt lon="-71.899965" lat="44.590120">
                <ele>465.700000</ele>
                <time>2015-10-12T14:17:07Z</time>
            </trkpt>
            <trkpt lon="-71.899994" lat="44.590094">
                <ele>466.300000</ele>
                <time>2015-10-12T14:17:09Z</time>
            </trkpt>
            <trkpt lon="-71.900017" lat="44.590068">
                <ele>466.800000</ele>
                <time>2015-10-12T14:17:11Z</time>
            </trkpt>
            <trkpt lon="-71.900047" lat="44.590041">
                <ele>467.100000</ele>
                <time>2015-10-12T14:17:13Z</time>
            </trkpt>
            <trkpt lon="-71.900067" lat="44.590011">
                <ele>467.400000</ele>
                <time>2015-10-12T14:17:15Z</time>
            </trkpt>
            <trkpt lon="-71.900082" lat="44.589982">
                <ele>467.900000</ele>
                <time>2015-10-12T14:17:17Z</time>
            </trkpt>
            <trkpt lon="-71.900100" lat="44.589954">
                <ele>468.200000</ele>
                <time>2015-10-12T14:17:19Z</time>
            </trkpt>
            <trkpt lon="-71.900112" lat="44.589928">
                <ele>468.500000</ele>
                <time>2015-10-12T14:17:21Z</time>
            </trkpt>
            <trkpt lon="-71.900110" lat="44.589892">
                <ele>469.100000</ele>
                <time>2015-10-12T14:17:24Z</time>
            </trkpt>
            <trkpt lon="-71.900088" lat="44.589862">
                <ele>469.700000</ele>
                <time>2015-10-12T14:17:27Z</time>
            </trkpt>
            <trkpt lon="-71.900041" lat="44.589845">
                <ele>470.400000</ele>
                <time>2015-10-12T14:17:30Z</time>
            </trkpt>
            <trkpt lon="-71.899994" lat="44.589846">
                <ele>470.800000</ele>
                <time>2015-10-12T14:17:32Z</time>
            </trkpt>
            <trkpt lon="-71.899944" lat="44.589856">
                <ele>471.000000</ele>
                <time>2015-10-12T14:17:34Z</time>
            </trkpt>
            <trkpt lon="-71.899893" lat="44.589870">
                <ele>471.100000</ele>
                <time>2015-10-12T14:17:36Z</time>
            </trkpt>
            <trkpt lon="-71.899844" lat="44.589885">
                <ele>471.000000</ele>
                <time>2015-10-12T14:17:38Z</time>
            </trkpt>
            <trkpt lon="-71.899797" lat="44.589896">
                <ele>471.000000</ele>
                <time>2015-10-12T14:17:40Z</time>
            </trkpt>
            <trkpt lon="-71.899747" lat="44.589904">
                <ele>471.100000</ele>
                <time>2015-10-12T14:17:42Z</time>
            </trkpt>
            <trkpt lon="-71.899698" lat="44.589911">
                <ele>471.200000</ele>
                <time>2015-10-12T14:17:44Z</time>
            </trkpt>
            <trkpt lon="-71.899644" lat="44.589917">
                <ele>471.500000</ele>
                <time>2015-10-12T14:17:46Z</time>
            </trkpt>
            <trkpt lon="-71.899593" lat="44.589920">
                <ele>471.800000</ele>
                <time>2015-10-12T14:17:48Z</time>
            </trkpt>
            <trkpt lon="-71.899540" lat="44.589923">
                <ele>472.000000</ele>
                <time>2015-10-12T14:17:50Z</time>
            </trkpt>
            <trkpt lon="-71.899485" lat="44.589926">
                <ele>472.200000</ele>
                <time>2015-10-12T14:17:52Z</time>
            </trkpt>
            <trkpt lon="-71.899430" lat="44.589931">
                <ele>472.400000</ele>
                <time>2015-10-12T14:17:54Z</time>
            </trkpt>
            <trkpt lon="-71.899378" lat="44.589937">
                <ele>472.500000</ele>
                <time>2015-10-12T14:17:56Z</time>
            </trkpt>
            <trkpt lon="-71.899327" lat="44.589942">
                <ele>472.500000</ele>
                <time>2015-10-12T14:17:58Z</time>
            </trkpt>
            <trkpt lon="-71.899274" lat="44.589946">
                <ele>472.600000</ele>
                <time>2015-10-12T14:18:00Z</time>
            </trkpt>
            <trkpt lon="-71.899219" lat="44.589953">
                <ele>472.800000</ele>
                <time>2015-10-12T14:18:02Z</time>
            </trkpt>
            <trkpt lon="-71.899164" lat="44.589966">
                <ele>473.100000</ele>
                <time>2015-10-12T14:18:04Z</time>
            </trkpt>
            <trkpt lon="-71.899109" lat="44.589983">
                <ele>473.500000</ele>
                <time>2015-10-12T14:18:06Z</time>
            </trkpt>
            <trkpt lon="-71.899058" lat="44.590003">
                <ele>473.700000</ele>
                <time>2015-10-12T14:18:08Z</time>
            </trkpt>
            <trkpt lon="-71.899012" lat="44.590023">
                <ele>473.800000</ele>
                <time>2015-10-12T14:18:10Z</time>
            </trkpt>
            <trkpt lon="-71.898965" lat="44.590037">
                <ele>473.900000</ele>
                <time>2015-10-12T14:18:12Z</time>
            </trkpt>
            <trkpt lon="-71.898915" lat="44.590052">
                <ele>474.000000</ele>
                <time>2015-10-12T14:18:14Z</time>
            </trkpt>
            <trkpt lon="-71.898861" lat="44.590065">
                <ele>474.100000</ele>
                <time>2015-10-12T14:18:16Z</time>
            </trkpt>
            <trkpt lon="-71.898805" lat="44.590073">
                <ele>474.300000</ele>
                <time>2015-10-12T14:18:18Z</time>
            </trkpt>
            <trkpt lon="-71.898749" lat="44.590076">
                <ele>474.500000</ele>
                <time>2015-10-12T14:18:20Z</time>
            </trkpt>
            <trkpt lon="-71.898691" lat="44.590090">
                <ele>474.400000</ele>
                <time>2015-10-12T14:18:22Z</time>
            </trkpt>
            <trkpt lon="-71.898633" lat="44.590110">
                <ele>474.300000</ele>
                <time>2015-10-12T14:18:24Z</time>
            </trkpt>
            <trkpt lon="-71.898573" lat="44.590128">
                <ele>474.400000</ele>
                <time>2015-10-12T14:18:26Z</time>
            </trkpt>
            <trkpt lon="-71.898517" lat="44.590152">
                <ele>474.100000</ele>
                <time>2015-10-12T14:18:28Z</time>
            </trkpt>
            <trkpt lon="-71.898461" lat="44.590178">
                <ele>474.100000</ele>
                <time>2015-10-12T14:18:30Z</time>
            </trkpt>
            <trkpt lon="-71.898402" lat="44.590203">
                <ele>474.400000</ele>
                <time>2015-10-12T14:18:32Z</time>
            </trkpt>
            <trkpt lon="-71.898338" lat="44.590217">
                <ele>474.700000</ele>
                <time>2015-10-12T14:18:34Z</time>
            </trkpt>
            <trkpt lon="-71.898274" lat="44.590217">
                <ele>475.000000</ele>
                <time>2015-10-12T14:18:36Z</time>
            </trkpt>
            <trkpt lon="-71.898222" lat="44.590201">
                <ele>475.400000</ele>
                <time>2015-10-12T14:18:38Z</time>
            </trkpt>
            <trkpt lon="-71.898187" lat="44.590171">
                <ele>475.900000</ele>
                <time>2015-10-12T14:18:40Z</time>
            </trkpt>
            <trkpt lon="-71.898160" lat="44.590136">
                <ele>476.700000</ele>
                <time>2015-10-12T14:18:42Z</time>
            </trkpt>
            <trkpt lon="-71.898148" lat="44.590100">
                <ele>477.500000</ele>
                <time>2015-10-12T14:18:44Z</time>
            </trkpt>
            <trkpt lon="-71.898162" lat="44.590065">
                <ele>478.300000</ele>
                <time>2015-10-12T14:18:46Z</time>
            </trkpt>
            <trkpt lon="-71.898194" lat="44.590037">
                <ele>478.900000</ele>
                <time>2015-10-12T14:18:48Z</time>
            </trkpt>
            <trkpt lon="-71.898236" lat="44.590015">
                <ele>479.200000</ele>
                <time>2015-10-12T14:18:50Z</time>
            </trkpt>
            <trkpt lon="-71.898279" lat="44.589994">
                <ele>479.200000</ele>
                <time>2015-10-12T14:18:52Z</time>
            </trkpt>
            <trkpt lon="-71.898316" lat="44.589971">
                <ele>479.300000</ele>
                <time>2015-10-12T14:18:54Z</time>
            </trkpt>
            <trkpt lon="-71.898355" lat="44.589947">
                <ele>479.200000</ele>
                <time>2015-10-12T14:18:56Z</time>
            </trkpt>
            <trkpt lon="-71.898393" lat="44.589923">
                <ele>479.200000</ele>
                <time>2015-10-12T14:18:58Z</time>
            </trkpt>
            <trkpt lon="-71.898433" lat="44.589903">
                <ele>479.200000</ele>
                <time>2015-10-12T14:19:00Z</time>
            </trkpt>
            <trkpt lon="-71.898477" lat="44.589886">
                <ele>479.100000</ele>
                <time>2015-10-12T14:19:02Z</time>
            </trkpt>
            <trkpt lon="-71.898526" lat="44.589874">
                <ele>479.100000</ele>
                <time>2015-10-12T14:19:04Z</time>
            </trkpt>
            <trkpt lon="-71.898576" lat="44.589864">
                <ele>479.000000</ele>
                <time>2015-10-12T14:19:06Z</time>
            </trkpt>
            <trkpt lon="-71.898617" lat="44.589846">
                <ele>479.100000</ele>
                <time>2015-10-12T14:19:08Z</time>
            </trkpt>
            <trkpt lon="-71.898650" lat="44.589822">
                <ele>479.300000</ele>
                <time>2015-10-12T14:19:10Z</time>
            </trkpt>
            <trkpt lon="-71.898690" lat="44.589803">
                <ele>479.400000</ele>
                <time>2015-10-12T14:19:12Z</time>
            </trkpt>
            <trkpt lon="-71.898739" lat="44.589793">
                <ele>479.400000</ele>
                <time>2015-10-12T14:19:14Z</time>
            </trkpt>
            <trkpt lon="-71.898778" lat="44.589775">
                <ele>479.600000</ele>
                <time>2015-10-12T14:19:16Z</time>
            </trkpt>
            <trkpt lon="-71.898814" lat="44.589750">
                <ele>479.900000</ele>
                <time>2015-10-12T14:19:18Z</time>
            </trkpt>
            <trkpt lon="-71.898848" lat="44.589727">
                <ele>480.200000</ele>
                <time>2015-10-12T14:19:20Z</time>
            </trkpt>
            <trkpt lon="-71.898884" lat="44.589708">
                <ele>480.300000</ele>
                <time>2015-10-12T14:19:22Z</time>
            </trkpt>
            <trkpt lon="-71.898909" lat="44.589681">
                <ele>480.800000</ele>
                <time>2015-10-12T14:19:24Z</time>
            </trkpt>
            <trkpt lon="-71.898932" lat="44.589657">
                <ele>481.100000</ele>
                <time>2015-10-12T14:19:26Z</time>
            </trkpt>
            <trkpt lon="-71.898960" lat="44.589630">
                <ele>481.400000</ele>
                <time>2015-10-12T14:19:28Z</time>
            </trkpt>
            <trkpt lon="-71.898988" lat="44.589604">
                <ele>481.700000</ele>
                <time>2015-10-12T14:19:30Z</time>
            </trkpt>
            <trkpt lon="-71.899013" lat="44.589576">
                <ele>482.100000</ele>
                <time>2015-10-12T14:19:32Z</time>
            </trkpt>
            <trkpt lon="-71.899034" lat="44.589549">
                <ele>482.500000</ele>
                <time>2015-10-12T14:19:34Z</time>
            </trkpt>
            <trkpt lon="-71.899052" lat="44.589525">
                <ele>482.700000</ele>
                <time>2015-10-12T14:19:36Z</time>
            </trkpt>
            <trkpt lon="-71.899075" lat="44.589501">
                <ele>483.000000</ele>
                <time>2015-10-12T14:19:38Z</time>
            </trkpt>
            <trkpt lon="-71.899105" lat="44.589480">
                <ele>483.200000</ele>
                <time>2015-10-12T14:19:40Z</time>
            </trkpt>
            <trkpt lon="-71.899137" lat="44.589457">
                <ele>483.300000</ele>
                <time>2015-10-12T14:19:42Z</time>
            </trkpt>
            <trkpt lon="-71.899172" lat="44.589434">
                <ele>483.400000</ele>
                <time>2015-10-12T14:19:44Z</time>
            </trkpt>
            <trkpt lon="-71.899215" lat="44.589417">
                <ele>483.400000</ele>
                <time>2015-10-12T14:19:46Z</time>
            </trkpt>
            <trkpt lon="-71.899259" lat="44.589406">
                <ele>483.400000</ele>
                <time>2015-10-12T14:19:48Z</time>
            </trkpt>
            <trkpt lon="-71.899293" lat="44.589385">
                <ele>483.500000</ele>
                <time>2015-10-12T14:19:50Z</time>
            </trkpt>
            <trkpt lon="-71.899317" lat="44.589362">
                <ele>483.600000</ele>
                <time>2015-10-12T14:19:52Z</time>
            </trkpt>
            <trkpt lon="-71.899359" lat="44.589344">
                <ele>483.500000</ele>
                <time>2015-10-12T14:19:54Z</time>
            </trkpt>
            <trkpt lon="-71.899397" lat="44.589325">
                <ele>483.500000</ele>
                <time>2015-10-12T14:19:56Z</time>
            </trkpt>
            <trkpt lon="-71.899428" lat="44.589304">
                <ele>483.500000</ele>
                <time>2015-10-12T14:19:58Z</time>
            </trkpt>
            <trkpt lon="-71.899459" lat="44.589275">
                <ele>483.500000</ele>
                <time>2015-10-12T14:20:00Z</time>
            </trkpt>
            <trkpt lon="-71.899494" lat="44.589241">
                <ele>483.600000</ele>
                <time>2015-10-12T14:20:02Z</time>
            </trkpt>
            <trkpt lon="-71.899533" lat="44.589211">
                <ele>483.500000</ele>
                <time>2015-10-12T14:20:04Z</time>
            </trkpt>
            <trkpt lon="-71.899568" lat="44.589180">
                <ele>483.800000</ele>
                <time>2015-10-12T14:20:06Z</time>
            </trkpt>
            <trkpt lon="-71.899601" lat="44.589148">
                <ele>484.100000</ele>
                <time>2015-10-12T14:20:08Z</time>
            </trkpt>
            <trkpt lon="-71.899630" lat="44.589116">
                <ele>484.400000</ele>
                <time>2015-10-12T14:20:10Z</time>
            </trkpt>
            <trkpt lon="-71.899657" lat="44.589083">
                <ele>484.700000</ele>
                <time>2015-10-12T14:20:12Z</time>
            </trkpt>
            <trkpt lon="-71.899671" lat="44.589046">
                <ele>485.000000</ele>
                <time>2015-10-12T14:20:14Z</time>
            </trkpt>
            <trkpt lon="-71.899677" lat="44.589009">
                <ele>485.400000</ele>
                <time>2015-10-12T14:20:16Z</time>
            </trkpt>
            <trkpt lon="-71.899673" lat="44.588974">
                <ele>485.800000</ele>
                <time>2015-10-12T14:20:18Z</time>
            </trkpt>
            <trkpt lon="-71.899667" lat="44.588943">
                <ele>485.800000</ele>
                <time>2015-10-12T14:20:20Z</time>
            </trkpt>
            <trkpt lon="-71.899641" lat="44.588909">
                <ele>486.000000</ele>
                <time>2015-10-12T14:20:23Z</time>
            </trkpt>
            <trkpt lon="-71.899605" lat="44.588879">
                <ele>486.300000</ele>
                <time>2015-10-12T14:20:26Z</time>
            </trkpt>
            <trkpt lon="-71.899561" lat="44.588865">
                <ele>486.800000</ele>
                <time>2015-10-12T14:20:28Z</time>
            </trkpt>
            <trkpt lon="-71.899522" lat="44.588851">
                <ele>487.200000</ele>
                <time>2015-10-12T14:20:30Z</time>
            </trkpt>
            <trkpt lon="-71.899477" lat="44.588843">
                <ele>487.500000</ele>
                <time>2015-10-12T14:20:33Z</time>
            </trkpt>
            <trkpt lon="-71.899430" lat="44.588824">
                <ele>487.900000</ele>
                <time>2015-10-12T14:20:36Z</time>
            </trkpt>
            <trkpt lon="-71.899398" lat="44.588809">
                <ele>488.400000</ele>
                <time>2015-10-12T14:20:38Z</time>
            </trkpt>
            <trkpt lon="-71.899367" lat="44.588788">
                <ele>488.800000</ele>
                <time>2015-10-12T14:20:41Z</time>
            </trkpt>
            <trkpt lon="-71.899333" lat="44.588771">
                <ele>489.200000</ele>
                <time>2015-10-12T14:20:43Z</time>
            </trkpt>
            <trkpt lon="-71.899297" lat="44.588759">
                <ele>489.500000</ele>
                <time>2015-10-12T14:20:45Z</time>
            </trkpt>
            <trkpt lon="-71.899259" lat="44.588744">
                <ele>489.900000</ele>
                <time>2015-10-12T14:20:47Z</time>
            </trkpt>
            <trkpt lon="-71.899219" lat="44.588725">
                <ele>490.400000</ele>
                <time>2015-10-12T14:20:49Z</time>
            </trkpt>
            <trkpt lon="-71.899180" lat="44.588711">
                <ele>491.000000</ele>
                <time>2015-10-12T14:20:51Z</time>
            </trkpt>
            <trkpt lon="-71.899139" lat="44.588699">
                <ele>491.500000</ele>
                <time>2015-10-12T14:20:53Z</time>
            </trkpt>
            <trkpt lon="-71.899096" lat="44.588689">
                <ele>491.900000</ele>
                <time>2015-10-12T14:20:55Z</time>
            </trkpt>
            <trkpt lon="-71.899064" lat="44.588670">
                <ele>492.500000</ele>
                <time>2015-10-12T14:20:57Z</time>
            </trkpt>
            <trkpt lon="-71.899039" lat="44.588646">
                <ele>493.000000</ele>
                <time>2015-10-12T14:20:59Z</time>
            </trkpt>
            <trkpt lon="-71.899019" lat="44.588619">
                <ele>493.500000</ele>
                <time>2015-10-12T14:21:01Z</time>
            </trkpt>
            <trkpt lon="-71.898996" lat="44.588596">
                <ele>494.000000</ele>
                <time>2015-10-12T14:21:03Z</time>
            </trkpt>
            <trkpt lon="-71.898954" lat="44.588578">
                <ele>494.700000</ele>
                <time>2015-10-12T14:21:06Z</time>
            </trkpt>
            <trkpt lon="-71.898905" lat="44.588587">
                <ele>495.200000</ele>
                <time>2015-10-12T14:21:09Z</time>
            </trkpt>
            <trkpt lon="-71.898857" lat="44.588594">
                <ele>495.900000</ele>
                <time>2015-10-12T14:21:12Z</time>
            </trkpt>
            <trkpt lon="-71.898806" lat="44.588587">
                <ele>496.600000</ele>
                <time>2015-10-12T14:21:15Z</time>
            </trkpt>
            <trkpt lon="-71.898765" lat="44.588569">
                <ele>497.200000</ele>
                <time>2015-10-12T14:21:18Z</time>
            </trkpt>
            <trkpt lon="-71.898754" lat="44.588529">
                <ele>497.700000</ele>
                <time>2015-10-12T14:21:21Z</time>
            </trkpt>
            <trkpt lon="-71.898764" lat="44.588501">
                <ele>498.000000</ele>
                <time>2015-10-12T14:21:23Z</time>
            </trkpt>
            <trkpt lon="-71.898772" lat="44.588472">
                <ele>498.100000</ele>
                <time>2015-10-12T14:21:25Z</time>
            </trkpt>
            <trkpt lon="-71.898766" lat="44.588435">
                <ele>498.700000</ele>
                <time>2015-10-12T14:21:28Z</time>
            </trkpt>
            <trkpt lon="-71.898753" lat="44.588399">
                <ele>499.200000</ele>
                <time>2015-10-12T14:21:31Z</time>
            </trkpt>
            <trkpt lon="-71.898748" lat="44.588363">
                <ele>499.600000</ele>
                <time>2015-10-12T14:21:34Z</time>
            </trkpt>
            <trkpt lon="-71.898748" lat="44.588334">
                <ele>499.900000</ele>
                <time>2015-10-12T14:21:36Z</time>
            </trkpt>
            <trkpt lon="-71.898745" lat="44.588295">
                <ele>500.400000</ele>
                <time>2015-10-12T14:21:39Z</time>
            </trkpt>
            <trkpt lon="-71.898740" lat="44.588260">
                <ele>501.000000</ele>
                <time>2015-10-12T14:21:42Z</time>
            </trkpt>
            <trkpt lon="-71.898742" lat="44.588222">
                <ele>501.500000</ele>
                <time>2015-10-12T14:21:45Z</time>
            </trkpt>
            <trkpt lon="-71.898744" lat="44.588182">
                <ele>501.200000</ele>
                <time>2015-10-12T14:21:48Z</time>
            </trkpt>
            <trkpt lon="-71.898743" lat="44.588155">
                <ele>501.200000</ele>
                <time>2015-10-12T14:21:50Z</time>
            </trkpt>
            <trkpt lon="-71.898737" lat="44.588126">
                <ele>501.200000</ele>
                <time>2015-10-12T14:21:52Z</time>
            </trkpt>
            <trkpt lon="-71.898721" lat="44.588087">
                <ele>501.500000</ele>
                <time>2015-10-12T14:21:55Z</time>
            </trkpt>
            <trkpt lon="-71.898715" lat="44.588060">
                <ele>501.700000</ele>
                <time>2015-10-12T14:21:57Z</time>
            </trkpt>
            <trkpt lon="-71.898709" lat="44.588029">
                <ele>502.000000</ele>
                <time>2015-10-12T14:21:59Z</time>
            </trkpt>
            <trkpt lon="-71.898707" lat="44.588000">
                <ele>502.100000</ele>
                <time>2015-10-12T14:22:01Z</time>
            </trkpt>
            <trkpt lon="-71.898722" lat="44.587963">
                <ele>502.200000</ele>
                <time>2015-10-12T14:22:04Z</time>
            </trkpt>
            <trkpt lon="-71.898749" lat="44.587941">
                <ele>501.800000</ele>
                <time>2015-10-12T14:22:06Z</time>
            </trkpt>
            <trkpt lon="-71.898802" lat="44.587916">
                <ele>501.600000</ele>
                <time>2015-10-12T14:22:08Z</time>
            </trkpt>
            <trkpt lon="-71.898849" lat="44.587898">
                <ele>501.500000</ele>
                <time>2015-10-12T14:22:10Z</time>
            </trkpt>
            <trkpt lon="-71.898894" lat="44.587885">
                <ele>501.900000</ele>
                <time>2015-10-12T14:22:12Z</time>
            </trkpt>
            <trkpt lon="-71.898941" lat="44.587876">
                <ele>502.400000</ele>
                <time>2015-10-12T14:22:14Z</time>
            </trkpt>
            <trkpt lon="-71.898987" lat="44.587869">
                <ele>502.500000</ele>
                <time>2015-10-12T14:22:16Z</time>
            </trkpt>
            <trkpt lon="-71.899038" lat="44.587868">
                <ele>502.700000</ele>
                <time>2015-10-12T14:22:18Z</time>
            </trkpt>
        </trkseg>
    </trk>
</gpx>